%YAML 1.1
%TAG !u! tag:unity3d.com,2011:
--- !u!114 &11400000
MonoBehaviour:
  m_ObjectHideFlags: 0
  m_CorrespondingSourceObject: {fileID: 0}
  m_PrefabInstance: {fileID: 0}
  m_PrefabAsset: {fileID: 0}
  m_GameObject: {fileID: 0}
  m_Enabled: 1
  m_EditorHideFlags: 0
  m_Script: {fileID: 11500000, guid: 284a9681fcd389e4580b74df3a8870df, type: 3}
  m_Name: E2_DeadStateData
  m_EditorClassIdentifier: 
  deathChunkParticle: {fileID: 771158984373505766, guid: 2c85e446ac1f9d24691c2ebbac2da371,
    type: 3}
  deathBloodParticle: {fileID: 7803658259522229062, guid: fed562a1dba9e67478d96679fb18f47a,
    type: 3}
  deathSound: {fileID: 3117052476069902654, guid: ac83340bcf6f61042b621a52df9ba936,
    type: 3}
