%YAML 1.1
%TAG !u! tag:unity3d.com,2011:
--- !u!114 &11400000
MonoBehaviour:
  m_ObjectHideFlags: 0
  m_CorrespondingSourceObject: {fileID: 0}
  m_PrefabInstance: {fileID: 0}
  m_PrefabAsset: {fileID: 0}
  m_GameObject: {fileID: 0}
  m_Enabled: 1
  m_EditorHideFlags: 0
  m_Script: {fileID: 11500000, guid: 88a7b5901b6c8794796e0433e0500960, type: 3}
  m_Name: E2_RangedAttackStateData
  m_EditorClassIdentifier: 
  projectile: {fileID: 3375504298629982980, guid: 53ef6a22b364d9243b5996dea96e46f3,
    type: 3}
  projectileDamage: 10
  projectileSpeed: 12
  projectileTravelDistance: 8
  longRangeAttackSound: {fileID: 1609755708603511622, guid: d545e56270d93ad4bb7d758d19a326c5,
    type: 3}
