%YAML 1.1
%TAG !u! tag:unity3d.com,2011:
--- !u!114 &11400000
MonoBehaviour:
  m_ObjectHideFlags: 0
  m_CorrespondingSourceObject: {fileID: 0}
  m_PrefabInstance: {fileID: 0}
  m_PrefabAsset: {fileID: 0}
  m_GameObject: {fileID: 0}
  m_Enabled: 1
  m_EditorHideFlags: 0
  m_Script: {fileID: 11500000, guid: 8463b60219c99bb4cb97401107344fea, type: 3}
  m_Name: E1_BaseData
  m_EditorClassIdentifier: 
  maxHealth: 50
  damageHopSpeed: 7
  wallCheckDistance: 0.4
  ledgeCheckDistance: 0.4
  groundCheckRadius: 2
  maxAgroDistance: 5
  minAgroDistance: 4
  closeRangeActionDistance: 1.25
  stunResistance: 3
  stunRecoveryTime: 2
  hitParticle: {fileID: 6580907049635325182, guid: 090cc7abadc1dbb42a90eb4e48a5b06d,
    type: 3}
  whatIsGround:
    serializedVersion: 2
    m_Bits: 256
  whatIsPlayer:
    serializedVersion: 2
    m_Bits: 2048
